Mineração de Dados
…
count: false

.panel1-ex_6-auto[

```r
# crescente
*gap_07_p %>% arrange(pibPercap)
```
]
 
.panel2-ex_6-auto[

```
# A tibble: 142 x 6
   pais                     continente   ano expVida      pop pibPercap
   <fct>                    <fct>      <int>   <dbl>    <int>     <dbl>
 1 Congo, Dem. Rep.         Africa      2007    46.5 64606759      278.
 2 Liberia                  Africa      2007    45.7  3193942      415.
 3 Burundi                  Africa      2007    49.6  8390505      430.
 4 Zimbabwe                 Africa      2007    43.5 12311143      470.
 5 Guinea-Bissau            Africa      2007    46.4  1472041      579.
 6 Niger                    Africa      2007    56.9 12894865      620.
 7 Eritrea                  Africa      2007    58.0  4906585      641.
 8 Ethiopia                 Africa      2007    52.9 76511887      691.
 9 Central African Republic Africa      2007    44.7  4369038      706.
10 Gambia                   Africa      2007    59.4  1688359      753.
# ... with 132 more rows
```
…
count: false

.panel1-ex_6A-auto[

```r
# descrescente
*gap_07_p %>% arrange(desc(pibPercap))
```
]
 
.panel2-ex_6A-auto[

```
# A tibble: 142 x 6
   pais             continente   ano expVida       pop pibPercap
   <fct>            <fct>      <int>   <dbl>     <int>     <dbl>
 1 Norway           Europe      2007    80.2   4627926    49357.
 2 Kuwait           Asia        2007    77.6   2505559    47307.
 3 Singapore        Asia        2007    80.0   4553009    47143.
 4 United States    Americas    2007    78.2 301139947    42952.
 5 Ireland          Europe      2007    78.9   4109086    40676.
 6 Hong Kong, China Asia        2007    82.2   6980412    39725.
 7 Switzerland      Europe      2007    81.7   7554661    37506.
 8 Netherlands      Europe      2007    79.8  16570613    36798.
 9 Canada           Americas    2007    80.7  33390141    36319.
10 Iceland          Europe      2007    81.8    301931    36181.
# ... with 132 more rows
```
…
--

count: false

.panel1-ex_7-auto[

```r
*gap_07_p %>% select(expVida, pibPercap)  #selecionando 2 colunas
```
]
 
.panel2-ex_7-auto[

```
# A tibble: 142 x 2
   expVida pibPercap
     <dbl>     <dbl>
 1    43.8      975.
 2    76.4     5937.
 3    72.3     6223.
 4    42.7     4797.
 5    75.3    12779.
 6    81.2    34435.
 7    79.8    36126.
 8    75.6    29796.
 9    64.1     1391.
10    79.4    33693.
# ... with 132 more rows
```
…
---

count: false

.panel1-ex_8-auto[

```r
*gap_07_p
```
]
 
.panel2-ex_8-auto[

```
# A tibble: 142 x 6
   pais        continente   ano expVida       pop pibPercap
   <fct>       <fct>      <int>   <dbl>     <int>     <dbl>
 1 Afghanistan Asia        2007    43.8  31889923      975.
 2 Albania     Europe      2007    76.4   3600523     5937.
 3 Algeria     Africa      2007    72.3  33333216     6223.
 4 Angola      Africa      2007    42.7  12420476     4797.
 5 Argentina   Americas    2007    75.3  40301927    12779.
 6 Australia   Oceania     2007    81.2  20434176    34435.
 7 Austria     Europe      2007    79.8   8199783    36126.
 8 Bahrain     Asia        2007    75.6    708573    29796.
 9 Bangladesh  Asia        2007    64.1 150448339     1391.
10 Belgium     Europe      2007    79.4  10392226    33693.
# ... with 132 more rows
```
…
---
count: false

.panel1-ex_8-auto[

```r
gap_07_p %>%
*        mutate(expVida_meses = expVida * 12)
```
]
 
.panel2-ex_8-auto[

```
# A tibble: 142 x 7
   pais        continente   ano expVida       pop pibPercap expVida_meses
   <fct>       <fct>      <int>   <dbl>     <int>     <dbl>         <dbl>
 1 Afghanistan Asia        2007    43.8  31889923      975.          526.
 2 Albania     Europe      2007    76.4   3600523     5937.          917.
 3 Algeria     Africa      2007    72.3  33333216     6223.          868.
 4 Angola      Africa      2007    42.7  12420476     4797.          513.
 5 Argentina   Americas    2007    75.3  40301927    12779.          904.
 6 Australia   Oceania     2007    81.2  20434176    34435.          975.
 7 Austria     Europe      2007    79.8   8199783    36126.          958.
 8 Bahrain     Asia        2007    75.6    708573    29796.          908.
 9 Bangladesh  Asia        2007    64.1 150448339     1391.          769.
10 Belgium     Europe      2007    79.4  10392226    33693.          953.
# ... with 132 more rows
```
…
